W  W   W   W   W   W   W   W   W   W   W   W   W   W   W   W
W  .   .w1 .w1 .   W   .   .   .   .   W   .   .w3 .w3 .   .x
W  .   .w1 .S1 .w1 .   .   .w2 .w2 .   W   .w3 .   .   .w3 W
W  .   .w1 .   .w1 .   .w2 .   .   .   W   .   .S3 .w3 .   W
W  .   .   .   .w1 .w2 .   .   .w2 .w2 W   .w3 .   .   .   W
W  .w1 .w1 .   .   W   .   .   .   .   W   .   .w3 .   .   W
W  .   .   .w1 .   W   .   .w2 .   .   W   .   .w3 .   .   W
W  .   .w1 .w1 .   W   .   .   .w2 .   .   .w3 .   .w3 .   W
W  .   .   .w1 .   W   .   .   .w2 .   .   .   .   .w3 .   W
W  .   .   .   .   W   .   .S2 .w2 .   .w3 .   .   .w3 .   W
.P .   .   .w1 .   W   .w2 .   .   .w2 W   .w3 .   .   .   W
W  W   W   W   W   W   W   W   W   W   W   W   W   W   W   W
